<?xml version="1.0" encoding="utf-8"?>
<!-- Generator: Adobe Illustrator 16.0.0, SVG Export Plug-In . SVG Version: 6.00 Build 0)  -->
<!DOCTYPE svg PUBLIC "-//W3C//DTD SVG 1.1//EN" "http://www.w3.org/Graphics/SVG/1.1/DTD/svg11.dtd">
<svg version="1.1" id="root" xmlns="http://www.w3.org/2000/svg" xmlns:xlink="http://www.w3.org/1999/xlink" x="0px" y="0px"
	 width="1024px" height="768px" viewBox="0 0 1024 768" enable-background="new 0 0 1024 768" xml:space="preserve">
<g id="background">
	<g id="background_1_">
		
			<linearGradient id="SVGID_1_" gradientUnits="userSpaceOnUse" x1="-1759.3784" y1="4249.1641" x2="-1759.3788" y2="3474.7119" gradientTransform="matrix(1 0 0 -1 2273.3789 4247.0781)">
			<stop  offset="0" style="stop-color:#133356"/>
			<stop  offset="0.5025" style="stop-color:#7C9999"/>
			<stop  offset="1" style="stop-color:#333333"/>
		</linearGradient>
		<rect x="-1" y="-3.95" fill="url(#SVGID_1_)" width="1030.001" height="775.901"/>
	</g>
	<g id="Layer_4">
		
			<radialGradient id="SVGID_2_" cx="-1848.6968" cy="3394.2793" r="504.3679" gradientTransform="matrix(0.9962 0 0 -1.3407 2307.5947 4914.2051)" gradientUnits="userSpaceOnUse">
			<stop  offset="0" style="stop-color:#E4C8A5;stop-opacity:0.5"/>
			<stop  offset="0.1429" style="stop-color:#AEAB93;stop-opacity:0.4372"/>
			<stop  offset="0.3797" style="stop-color:#587E77;stop-opacity:0.3331"/>
			<stop  offset="0.4877" style="stop-color:#366C6C;stop-opacity:0.2857"/>
		</radialGradient>
		<rect x="-1" y="-3.466" fill="url(#SVGID_2_)" width="1030.001" height="775.174"/>
	</g>
</g>
<g id="glows">
	
		<radialGradient id="SVGID_3_" cx="-1507.3711" cy="3897.7227" r="145.2749" gradientTransform="matrix(1 0 0 -1 2273.3789 4247.0781)" gradientUnits="userSpaceOnUse">
		<stop  offset="0" style="stop-color:#FFFCDD"/>
		<stop  offset="1" style="stop-color:#FEF9C8;stop-opacity:0"/>
	</radialGradient>
	<path opacity="0.2" fill="url(#SVGID_3_)" enable-background="new    " d="M766.007,204.082
		c80.234,0,145.277,65.042,145.277,145.275c0,80.229-65.043,145.272-145.277,145.272c-80.23,0-145.275-65.043-145.275-145.271
		C620.729,269.124,685.774,204.082,766.007,204.082z"/>
	
		<radialGradient id="SVGID_4_" cx="-1588.0508" cy="3947.7168" r="114.9883" gradientTransform="matrix(1 0 0 -1 2273.3789 4247.0781)" gradientUnits="userSpaceOnUse">
		<stop  offset="0" style="stop-color:#99CCCC"/>
		<stop  offset="1" style="stop-color:#FEF9C8;stop-opacity:0"/>
	</radialGradient>
	<path opacity="0.2" fill="url(#SVGID_4_)" enable-background="new    " d="M685.327,184.374c63.506,0,114.99,51.481,114.99,114.989
		c0,63.507-51.484,114.985-114.99,114.985S570.339,362.87,570.339,299.363C570.339,235.855,621.821,184.374,685.327,184.374z"/>
	
		<radialGradient id="SVGID_5_" cx="-2084.3901" cy="3967.4893" r="152.4512" gradientTransform="matrix(1 0 0 -1 2273.3789 4247.0781)" gradientUnits="userSpaceOnUse">
		<stop  offset="0" style="stop-color:#FFFCDD"/>
		<stop  offset="1" style="stop-color:#FEF9C8;stop-opacity:0"/>
	</radialGradient>
	<circle opacity="0.1" fill="url(#SVGID_5_)" enable-background="new    " cx="188.989" cy="279.589" r="152.451"/>
	
		<radialGradient id="SVGID_6_" cx="-1986.5723" cy="3869.126" r="152.4509" gradientTransform="matrix(1 0 0 -1 2273.3789 4247.0781)" gradientUnits="userSpaceOnUse">
		<stop  offset="0" style="stop-color:#FFFCDD"/>
		<stop  offset="1" style="stop-color:#FEF9C8;stop-opacity:0"/>
	</radialGradient>
	<circle opacity="0.1" fill="url(#SVGID_6_)" enable-background="new    " cx="286.806" cy="377.952" r="152.451"/>
	
		<radialGradient id="SVGID_7_" cx="-1936.4463" cy="3820.8242" r="195.0298" gradientTransform="matrix(1 0 0 -1 2273.3789 4247.0781)" gradientUnits="userSpaceOnUse">
		<stop  offset="0" style="stop-color:#FFFCDD"/>
		<stop  offset="1" style="stop-color:#FEF9C8;stop-opacity:0"/>
	</radialGradient>
	<path opacity="0.1" fill="url(#SVGID_7_)" enable-background="new    " d="M336.93,231.226
		c107.713,0,195.034,87.317,195.034,195.025c0,107.712-87.321,195.03-195.034,195.03c-107.711,0-195.029-87.318-195.029-195.03
		C141.9,318.543,229.218,231.226,336.93,231.226z"/>
	
		<radialGradient id="SVGID_8_" cx="-1618.2813" cy="3861.2881" r="195.0283" gradientTransform="matrix(1 0 0 -1 2273.3789 4247.0781)" gradientUnits="userSpaceOnUse">
		<stop  offset="0" style="stop-color:#FFFCDD"/>
		<stop  offset="1" style="stop-color:#FEF9C8;stop-opacity:0"/>
	</radialGradient>
	<path opacity="0.1" fill="url(#SVGID_8_)" enable-background="new    " d="M655.099,190.764
		c107.713,0,195.029,87.315,195.029,195.025c0,107.715-87.316,195.027-195.029,195.027c-107.709,0-195.031-87.314-195.031-195.026
		C460.067,278.08,547.39,190.764,655.099,190.764z"/>
	
		<radialGradient id="SVGID_9_" cx="-1954.7354" cy="3939.332" r="195.0278" gradientTransform="matrix(1 0 0 -1 2273.3789 4247.0781)" gradientUnits="userSpaceOnUse">
		<stop  offset="0" style="stop-color:#99CCCC"/>
		<stop  offset="1" style="stop-color:#FEF9C8;stop-opacity:0"/>
	</radialGradient>
	<circle opacity="0.2" fill="url(#SVGID_9_)" enable-background="new    " cx="318.643" cy="307.746" r="195.028"/>
	
		<radialGradient id="SVGID_10_" cx="-1468.6074" cy="3929.9688" r="195.0278" gradientTransform="matrix(1 0 0 -1 2273.3789 4247.0781)" gradientUnits="userSpaceOnUse">
		<stop  offset="0" style="stop-color:#FFFCDD"/>
		<stop  offset="1" style="stop-color:#FEF9C8;stop-opacity:0"/>
	</radialGradient>
	<circle opacity="0.2" fill="url(#SVGID_10_)" enable-background="new    " cx="804.771" cy="317.11" r="195.028"/>
	
		<radialGradient id="SVGID_11_" cx="-1525.7529" cy="3792.6064" r="195.0283" gradientTransform="matrix(1 0 0 -1 2273.3789 4247.0781)" gradientUnits="userSpaceOnUse">
		<stop  offset="0" style="stop-color:#99CCCC"/>
		<stop  offset="1" style="stop-color:#FEF9C8;stop-opacity:0"/>
	</radialGradient>
	<path opacity="0.2" fill="url(#SVGID_11_)" enable-background="new    " d="M747.624,259.444
		c107.715,0,195.031,87.317,195.031,195.024c0,107.712-87.316,195.03-195.031,195.03c-107.709,0-195.027-87.318-195.027-195.03
		C552.597,346.761,639.915,259.444,747.624,259.444z"/>
</g>
<g id="octopus_1_">
	
		<radialGradient id="SVGID_12_" cx="14671.3887" cy="-3744.686" r="366.5706" gradientTransform="matrix(-1 0 0 1 15223.6641 4229.417)" gradientUnits="userSpaceOnUse">
		<stop  offset="0" style="stop-color:#BCCCB3"/>
		<stop  offset="1" style="stop-color:#FEF9C8;stop-opacity:0"/>
	</radialGradient>
	<path opacity="0.1" fill="url(#SVGID_12_)" enable-background="new    " d="M168.048,223.54c0,0-86.494,106.006-57.708,218.526
		c48.662,190.206,195.996,220.612,434.657,166.5c420.549-95.355,435.082,117.585,431.961,137.355l22.83-33.101
		c3.121-19.768-11.412-232.707-431.961-137.356c-238.663,54.112-385.997,23.71-434.656-166.498
		C104.385,296.448,168.048,223.54,168.048,223.54"/>
	
		<radialGradient id="SVGID_13_" cx="14562.3574" cy="-3883.877" r="734.6483" gradientTransform="matrix(-1 0 0 1 15223.6641 4229.417)" gradientUnits="userSpaceOnUse">
		<stop  offset="0" style="stop-color:#BCCCB3"/>
		<stop  offset="1" style="stop-color:#FEF9C8;stop-opacity:0"/>
	</radialGradient>
	<path opacity="0.5" fill="url(#SVGID_13_)" enable-background="new    " d="M88.851,169.021c0,0-86.494,106.01-57.71,218.529
		c48.661,190.205,195.995,220.61,434.655,166.498c420.548-95.354,435.085,117.59,431.962,137.36l29.531-2.98
		c14.652-33.445-18.115-262.833-438.666-167.479c-238.658,54.111-385.992,23.709-434.652-166.495
		C25.188,241.93,88.851,169.021,88.851,169.021"/>
	
		<radialGradient id="SVGID_14_" cx="14636.2695" cy="-3758.1094" r="366.5708" gradientTransform="matrix(-1 0 0 1 15223.6641 4229.417)" gradientUnits="userSpaceOnUse">
		<stop  offset="0" style="stop-color:#BCCCB3"/>
		<stop  offset="1" style="stop-color:#FEF9C8;stop-opacity:0"/>
	</radialGradient>
	<path opacity="0.2" fill="url(#SVGID_14_)" enable-background="new    " d="M203.168,210.116c0,0-86.496,106.01-57.709,218.527
		c48.66,190.208,195.994,220.61,434.655,166.499c420.549-95.354,435.084,117.583,431.963,137.356l22.83-33.092
		c3.123-19.772-11.414-232.718-431.961-137.362c-238.662,54.112-385.996,23.707-434.656-166.498
		C139.505,283.024,203.168,210.116,203.168,210.116"/>
	
		<linearGradient id="SVGID_15_" gradientUnits="userSpaceOnUse" x1="14223.1348" y1="-3845.8223" x2="15135.541" y2="-3845.8223" gradientTransform="matrix(-1 0 0 1 15223.6641 4229.417)">
		<stop  offset="0" style="stop-color:#ABCCB3;stop-opacity:0.7"/>
		<stop  offset="0.33" style="stop-color:#B4CFB5;stop-opacity:0.05"/>
		<stop  offset="0.803" style="stop-color:#C1D4B7;stop-opacity:0.5"/>
		<stop  offset="1" style="stop-color:#FEF9C8;stop-opacity:0"/>
	</linearGradient>
	<path opacity="0.4" fill="url(#SVGID_15_)" enable-background="new    " d="M88.124,290.207c0,0,24.657-93.599,133.962-132.87
		c203.448-83.235,321.105,84.886,391.744,252.657c6.24,14.827,21.852,52.288,47.604,124.087
		c34.018,94.833,80.385,95.987,183.184,76.647c158.574-35.955,147.92,44.341,146.736,51.796l8.607-12.479
		c1.184-7.454,11.836-87.751-146.736-51.799c-98.08,20.979-145.795-0.637-173.309-72.757
		c-27.516-72.114-29.211-74.817-55.164-141.252c-89.045-227.941-191.205-318.412-388.07-264.369
		C127.381,159.143,88.124,290.207,88.124,290.207"/>
</g>
<g id="rounds">
	<path fill="none" stroke="#FFFFFF" stroke-width="2" stroke-miterlimit="10" d="M623.601,444.982"/>
	<circle opacity="0.3" fill="#FFFFFF" enable-background="new    " cx="587.396" cy="465.029" r="6.82"/>
	<path opacity="0.2" fill="#FFFFFF" enable-background="new    " d="M766.542,361.95c3.77,0,6.82,3.054,6.82,6.819
		c0,3.769-3.053,6.821-6.82,6.821c-3.766,0-6.818-3.053-6.818-6.821C759.724,365.004,762.776,361.95,766.542,361.95z"/>
	<circle opacity="0.1" fill="#FFFFFF" enable-background="new    " cx="887.966" cy="231.33" r="6.82"/>
	<circle opacity="0.4" fill="#FFFFFF" enable-background="new    " cx="380.241" cy="507.141" r="6.82"/>
</g>
<g id="logoGroup_1_">
	<path opacity="0.4" fill="#366C6C" enable-background="new    " d="M237.346,278.303c42.261,0,76.518,34.258,76.518,76.517
		c0,42.254-34.257,76.513-76.518,76.513c-42.256,0-76.514-34.259-76.514-76.513C160.833,312.561,195.09,278.303,237.346,278.303z"/>
	<g id="logo_1_" enable-background="new    ">
		<path fill="#FFFFFF" d="M244.072,358.603c-1.419,0.018,0.269,0.728,2.123,1.015c0.514-0.401,0.977-0.805,1.389-1.198
			C246.431,358.703,245.256,358.711,244.072,358.603"/>
		<path fill="#FFFFFF" d="M251.694,356.703c0.852-1.17,1.464-2.447,1.681-3.768c-0.191,0.943-0.7,1.752-1.181,2.612
			c-2.656,1.676-0.25-0.989-0.006-2.006C249.338,357.137,251.796,355.698,251.694,356.703"/>
		<path fill="#FFFFFF" d="M254.509,349.378c0.173-2.557-0.502-1.746-0.728-0.773C254.044,348.745,254.254,350.409,254.509,349.378"
			/>
		<path fill="#FFFFFF" d="M238.684,314.417c0.76,0.139,1.639,0.24,1.513,0.422C241.027,314.653,241.216,314.49,238.684,314.417"/>
		<path fill="#FFFFFF" d="M240.198,314.838l-0.531,0.115l0.497-0.05L240.198,314.838"/>
		<path fill="#FFFFFF" d="M263.837,350.349c0.08,2.295-0.672,3.413-1.354,5.387l-1.226,0.613c-1.009,1.953,0.097,1.245-0.619,2.79
			c-1.573,1.397-4.759,4.365-5.776,4.633c-0.749-0.017,0.506-0.88,0.666-1.218c-2.099,1.442-1.682,2.161-4.897,3.042l-0.095-0.21
			c-7.918,3.727-18.915-3.653-18.774-13.729c-0.083,0.64-0.239,0.479-0.415,0.736c-0.407-5.183,2.396-10.386,7.122-12.515
			c4.627-2.288,10.048-1.355,13.35,1.74c-1.816-2.383-5.438-4.912-9.723-4.674c-4.2,0.074-8.139,2.742-9.444,5.641
			c-2.157,1.354-2.403,5.224-3.341,5.931c-1.268,9.277,2.375,13.283,8.527,18.001c0.964,0.657,0.271,0.75,0.401,1.247
			c-2.05-0.956-3.913-2.4-5.453-4.17c0.816,1.193,1.703,2.354,2.838,3.263c-1.929-0.649-4.503-4.671-5.255-4.833
			c3.323,5.953,13.475,10.438,18.799,8.206c-2.463,0.094-5.588,0.053-8.357-0.972c-1.159-0.596-2.742-1.832-2.46-2.064
			c7.258,2.711,14.752,2.05,21.035-2.982c1.6-1.244,3.345-3.36,3.85-3.391c-0.759,1.141,0.13,0.55-0.453,1.556
			c1.59-2.569-0.692-1.046,1.642-4.435l0.86,1.189c-0.324-2.136,2.65-4.72,2.348-8.092c0.684-1.03,0.76,1.11,0.032,3.479
			c1.004-2.63,0.27-3.046,0.524-5.224c0.273,0.729,0.642,1.506,0.833,2.276c-0.654-2.545,0.667-4.282,0.997-5.757
			c-0.325-0.144-1.008,1.12-1.166-1.878c0.022-1.305,0.364-0.683,0.494-1.006c-0.254-0.146-0.926-1.147-1.334-3.066
			c0.295-0.448,0.793,1.167,1.192,1.232c-0.256-1.523-0.704-2.686-0.724-3.855c-1.181-2.461-0.419,0.332-1.373-1.054
			c-1.255-3.913,1.038-0.905,1.198-2.682c1.895,2.753,2.98,7.017,3.478,8.788c-0.378-2.155-0.986-4.238-1.742-6.263
			c0.574,0.249-0.934-4.435,0.747-1.334c-1.788-6.604-7.68-12.773-13.092-15.665c0.662,0.604,1.5,1.364,1.204,1.484
			c-2.699-1.6-2.223-1.729-2.61-2.404c-2.195-0.896-2.335,0.073-3.784,0.004c-4.134-2.195-4.933-1.962-8.735-3.334l0.171,0.813
			c-2.74-0.916-3.191,0.341-6.15,0.002c-0.18-0.141,0.95-0.51,1.877-0.645c-2.648,0.351-2.524-0.521-5.113,0.099
			c0.638-0.445,1.312-0.748,1.996-1.125c-2.158,0.134-5.156,1.255-4.232,0.229c-3.524,1.572-9.777,3.781-13.288,7.072l-0.11-0.735
			c-1.612,1.932-7.014,5.764-7.446,8.271l-0.427,0.097c-0.836,1.42-1.377,3.025-2.044,4.479c-1.097,1.865-1.604,0.717-1.447,1.007
			c-2.155,4.369-3.224,8.033-4.149,11.046c0.661,0.985,0.016,5.923,0.265,9.875c-1.079,19.522,13.705,38.488,29.867,42.862
			c2.368,0.852,5.886,0.816,8.888,0.898c-3.537-1.01-3.994-0.53-7.438-1.739c-2.483-1.169-3.027-2.503-4.788-4.03l0.695,1.229
			c-3.447-1.224-2.003-1.512-4.813-2.398l0.747-0.966c-1.116-0.085-2.959-1.884-3.465-2.884l-1.226,0.051
			c-1.468-1.812-2.254-3.12-2.194-4.131l-0.401,0.702c-0.443-0.77-5.408-6.799-2.831-5.396c-0.48-0.438-1.117-0.707-1.809-1.962
			l0.529-0.594c-1.242-1.595-2.287-3.637-2.201-4.323c0.662,0.895,1.118,1.058,1.574,1.212c-3.137-7.76-3.31-0.423-5.673-7.899
			l0.502-0.039c-0.38-0.581-0.617-1.205-0.925-1.825l0.221-2.175c-2.249-2.602-0.631-11.067-0.306-15.71
			c0.228-1.89,1.875-3.897,3.134-7.056l-0.768-0.134c1.463-2.551,8.367-10.265,11.565-9.872c1.551-1.94-0.309-0.01-0.613-0.495
			c3.403-3.522,4.475-2.481,6.769-3.12c2.479-1.465-2.123,0.574-0.948-0.556c4.281-1.095,3.03-2.483,8.616-3.042
			c0.591,0.335-1.365,0.514-1.852,0.948c3.565-1.745,11.284-1.351,16.294,0.965c5.818,2.722,12.35,10.755,12.61,18.315l0.291,0.077
			c-0.146,3.003,0.465,6.481-0.596,9.676L263.837,350.349"/>
		<path fill="#FFFFFF" d="M228.569,360.551l-0.2,0.994c0.933,1.268,1.674,2.643,2.865,3.631
			C230.375,363.507,229.741,362.815,228.569,360.551"/>
		<path fill="#FFFFFF" d="M230.772,360.466c-0.491-0.549-0.789-1.202-1.116-1.855c0.314,1.154,0.957,2.138,1.552,3.152
			L230.772,360.466"/>
		<path fill="#FFFFFF" d="M269.828,351.977l-0.209,0.525c-0.377,2.717-1.207,5.407-2.477,7.897
			C268.542,357.77,269.444,354.894,269.828,351.977"/>
		<path fill="#FFFFFF" d="M238.965,313.733c0.964-0.353,2.36-0.191,3.381-0.423c-1.33,0.115-2.651,0.182-3.955,0.343
			L238.965,313.733"/>
		<path fill="#FFFFFF" d="M205.249,331.665c0.221,2.048-1.542,2.842,0.389,1.488C206.674,330.823,205.236,332.512,205.249,331.665"
			/>
		<path fill="#FFFFFF" d="M202.979,341.146c0.444-1.365,0.53-2.184,0.699-2.976C202.445,339.742,203.108,340.077,202.979,341.146"/>
	</g>
</g>
<g id="debian_1_">
	<g>
		<path fill="#FFFFFF" d="M738.546,437.724c-0.053,0.058-0.053,9.28-0.17,11.688c-0.111,1.946-0.287,6.128-4.41,6.128
			c-4.24,0-5.273-4.871-5.615-6.989c-0.398-2.348-0.398-4.298-0.398-5.153c0-2.751,0.17-10.43,6.645-10.43
			c1.949,0,3.037,0.575,3.896,1.03L738.546,437.724z M721.935,444.485c0,16.155,8.594,16.155,9.854,16.155
			c3.553,0,5.846-1.948,6.818-5.327l0.113,5.098c1.09-0.058,2.182-0.171,3.953-0.171c0.633,0,1.146,0,1.607,0.056
			c0.457,0,0.916,0.057,1.434,0.115c-0.918-1.832-1.607-5.955-1.607-14.896c0-8.707,0-23.43,0.748-27.898
			c-2.063,0.976-3.842,1.604-7.736,1.947c1.549,1.662,1.549,2.522,1.549,10.079c-1.088-0.341-2.465-0.742-4.813-0.742
			C723.595,428.901,721.935,437.837,721.935,444.485"/>
		<path fill="#FFFFFF" d="M753.005,441.561c0.055-4.756,1.031-8.993,5.098-8.993c4.473,0,4.811,4.924,4.697,8.993H753.005z
			 M768.472,442.136c0-6.703-1.316-13.291-9.793-13.291c-11.688,0-11.688,12.948-11.688,15.696c0,11.632,5.215,16.213,13.975,16.213
			c3.896,0,5.789-0.569,6.82-0.859c-0.055-2.063,0.23-3.379,0.572-5.153c-1.203,0.745-2.75,1.72-6.188,1.72
			c-8.939,0-9.053-8.138-9.053-10.944h15.24L768.472,442.136"/>
		<path fill="#FFFFFF" d="M787.11,444.599c0,5.327-0.975,12.489-7.619,12.489c-0.918,0-2.063-0.173-2.807-0.345
			c-0.119-2.063-0.119-5.614-0.119-9.739c0-4.927,0.518-7.502,0.92-8.765c1.203-4.066,3.895-4.123,4.412-4.123
			C786.249,434.116,787.11,440.13,787.11,444.599z M770.667,450.844c0,4.238,0,6.646-0.688,8.479
			c2.352,0.916,5.271,1.431,8.768,1.431c2.232,0,8.707,0,12.203-7.16c1.662-3.322,2.234-7.792,2.234-11.173
			c0-2.064-0.23-6.588-1.891-9.454c-1.604-2.689-4.184-4.064-6.932-4.064c-5.498,0-7.104,4.583-7.963,6.932
			c0-2.92,0.059-13.118,0.514-18.333c-3.725,1.72-6.018,2.003-8.48,2.232c2.238,0.918,2.238,4.7,2.238,17.018v14.094"/>
		<path fill="#FFFFFF" d="M804.196,460.41c-1.146-0.171-1.951-0.287-3.611-0.287c-1.83,0-3.092,0.116-4.41,0.287
			c0.574-1.087,0.803-1.604,0.975-5.326c0.229-5.099,0.287-18.737-0.113-21.602c-0.289-2.179-0.801-2.521-1.604-3.093
			c4.695-0.46,6.012-0.803,8.191-1.833c-0.457,2.521-0.518,3.784-0.518,7.621C802.991,455.944,802.935,458.062,804.196,460.41"/>
		<path fill="#FFFFFF" d="M822.544,444.194c-0.117,3.611-0.172,6.134-1.148,8.14c-1.203,2.578-3.209,3.322-4.695,3.322
			c-3.441,0-4.184-2.861-4.184-5.669c0-5.387,4.814-5.789,6.988-5.789h3.041L822.544,444.194L822.544,444.194z M806.786,451.245
			c0,3.607,1.088,7.215,4.299,8.766c1.434,0.63,2.863,0.63,3.322,0.63c5.271,0,7.045-3.896,8.137-6.303
			c-0.057,2.521,0,4.065,0.17,6.072c1.031-0.057,2.064-0.171,3.783-0.171c0.973,0,1.887,0.114,2.863,0.171
			c-0.633-0.973-0.975-1.548-1.146-3.781c-0.115-2.175-0.115-4.354-0.115-7.391l0.057-11.688c0-4.356-1.146-8.652-9.74-8.652
			c-5.67,0-8.994,1.72-10.656,2.578c0.689,1.261,1.266,2.349,1.777,4.813c2.24-1.95,5.16-2.981,8.135-2.981
			c4.758,0,4.758,3.155,4.758,7.621c-1.088-0.055-2.004-0.17-3.553-0.17C811.597,440.761,806.786,443.563,806.786,451.245"/>
		<path fill="#FFFFFF" d="M855.542,454.738c0.059,1.947,0.059,4.01,0.857,5.673c-1.262-0.117-2.006-0.287-4.355-0.287
			c-1.375,0-2.115,0.119-3.209,0.287c0.23-0.745,0.348-1.029,0.461-2.004c0.17-1.315,0.289-5.73,0.289-7.277v-6.188
			c0-2.69,0-6.59-0.178-7.962c-0.113-0.973-0.396-3.61-3.725-3.61c-3.266,0-4.352,2.404-4.754,4.354
			c-0.459,2.005-0.459,4.184-0.459,12.66c0.057,7.334,0.057,8.021,0.629,10.027c-0.971-0.115-2.174-0.228-3.891-0.228
			c-1.377,0-2.295,0.055-3.436,0.228c0.4-0.918,0.629-1.375,0.742-4.582c0.117-3.154,0.346-18.622-0.172-22.286
			c-0.285-2.237-0.859-2.752-1.486-3.327c4.641-0.229,6.127-0.972,7.561-1.717v6.069c0.688-1.774,2.119-5.729,7.85-5.729
			c7.162,0,7.219,5.214,7.275,8.651V454.738"/>
		<path fill="#FFFFFF" d="M804.681,420.449l-4.746,4.743l-4.742-4.743l4.742-4.741L804.681,420.449"/>
	</g>
	<g id="_x39_">
		<g>
			<g>
				<path fill="#FFFFFF" d="M887.964,452.013c-8.387,0.247-15.672-7.104-15.672-15.072c0-8.824,6.385-16.575,15.928-16.575
					c9.539,0,15.424,7.751,15.424,19.66c0,10.267-3.438,17.441-8.035,21.894c-3.584,3.516-8.539,5.667-13.561,6.243
					c-2.295,0.356-4.303,0.432-5.811,0.356c0,0,21.428-6.439,22.102-24.065c0.148-3.942,2.871-19.64-10.619-19.279
					c-5.379,0.14-9.188,4.734-9.188,11.336c0,5.812,1.785,9.928,7.676,11.37c4.113,1.009,6.695-0.587,9.746-8.037
					C895.952,439.843,897.3,451.739,887.964,452.013z"/>
			</g>
		</g>
	</g>
</g>
</svg>
