<?xml version="1.0" encoding="utf-8"?>
<!-- Generator: Adobe Illustrator 16.0.0, SVG Export Plug-In . SVG Version: 6.00 Build 0)  -->
<!DOCTYPE svg PUBLIC "-//W3C//DTD SVG 1.1//EN" "http://www.w3.org/Graphics/SVG/1.1/DTD/svg11.dtd">
<svg version="1.1" id="Layer_1" xmlns="http://www.w3.org/2000/svg" xmlns:xlink="http://www.w3.org/1999/xlink" x="0px" y="0px"
	 width="800px" height="75px" viewBox="0 0 800 75" enable-background="new 0 0 800 75" xml:space="preserve">
<g id="background_1_">
	
		<linearGradient id="SVGID_1_" gradientUnits="userSpaceOnUse" x1="-2656.3188" y1="-1146.9531" x2="-1740.2144" y2="-1146.9531" gradientTransform="matrix(1 0 0 1 2596.3594 1189.958)">
		<stop  offset="0" style="stop-color:#133456"/>
		<stop  offset="0.5025" style="stop-color:#7C9999"/>
		<stop  offset="1" style="stop-color:#203F5E"/>
	</linearGradient>
	<rect x="-62.167" y="-17" fill="url(#SVGID_1_)" width="917.819" height="120.009"/>
	
		<radialGradient id="SVGID_2_" cx="574.498" cy="1327.9736" r="286.0157" gradientTransform="matrix(1.3506 0 0 1 -469.8726 -1284.9688)" gradientUnits="userSpaceOnUse">
		<stop  offset="0" style="stop-color:#E4C8A5;stop-opacity:0.5"/>
		<stop  offset="0.1429" style="stop-color:#AEAB95;stop-opacity:0.4372"/>
		<stop  offset="0.3797" style="stop-color:#5A8079;stop-opacity:0.3331"/>
		<stop  offset="0.4877" style="stop-color:#396D6E;stop-opacity:0.2857"/>
	</radialGradient>
	<rect x="-234.21" y="-17" fill="url(#SVGID_2_)" width="1080.511" height="120.009"/>
</g>
<g id="glows">
	
		<radialGradient id="SVGID_3_" cx="1336.1592" cy="2068.1465" r="93.7261" gradientTransform="matrix(1 0 0 1 -435.9609 -1997.7598)" gradientUnits="userSpaceOnUse">
		<stop  offset="0" style="stop-color:#FEFBDF"/>
		<stop  offset="1" style="stop-color:#FDF9C9;stop-opacity:0"/>
	</radialGradient>
	<circle display="none" opacity="0.2" fill="url(#SVGID_3_)" enable-background="new    " cx="900.198" cy="70.387" r="93.726"/>
	
		<radialGradient id="SVGID_4_" cx="1261.9736" cy="2072.0605" r="74.1885" gradientTransform="matrix(1 0 0 1 -435.9609 -1997.7598)" gradientUnits="userSpaceOnUse">
		<stop  offset="0" style="stop-color:#99CCCC"/>
		<stop  offset="1" style="stop-color:#FDF9C9;stop-opacity:0"/>
	</radialGradient>
	<circle display="none" opacity="0.2" fill="url(#SVGID_4_)" enable-background="new    " cx="826.013" cy="74.3" r="74.188"/>
	
		<radialGradient id="SVGID_5_" cx="1010.2188" cy="2045.2422" r="98.3569" gradientTransform="matrix(1 0 0 1 -435.9609 -1997.7598)" gradientUnits="userSpaceOnUse">
		<stop  offset="0" style="stop-color:#FEFBDF"/>
		<stop  offset="1" style="stop-color:#FDF9C9;stop-opacity:0"/>
	</radialGradient>
	<circle opacity="0.1" fill="url(#SVGID_5_)" enable-background="new    " cx="574.257" cy="47.483" r="98.357"/>
	
		<radialGradient id="SVGID_6_" cx="1188.6953" cy="2068.3867" r="98.356" gradientTransform="matrix(1 0 0 1 -435.9609 -1997.7598)" gradientUnits="userSpaceOnUse">
		<stop  offset="0" style="stop-color:#FEFBDF"/>
		<stop  offset="1" style="stop-color:#FDF9C9;stop-opacity:0"/>
	</radialGradient>
	<circle opacity="0.1" fill="url(#SVGID_6_)" enable-background="new    " cx="752.735" cy="70.627" r="98.355"/>
</g>
<g id="octopus">
	
		<radialGradient id="SVGID_7_" cx="684.6953" cy="3010.8691" r="224.6745" gradientTransform="matrix(0.7387 0.0645 -0.0694 0.5094 -64.743 -1553.2639)" gradientUnits="userSpaceOnUse">
		<stop  offset="0" style="stop-color:#BCCCB3"/>
		<stop  offset="1" style="stop-color:#FEF9C8;stop-opacity:0"/>
	</radialGradient>
	<path opacity="0.6" fill="url(#SVGID_7_)" enable-background="new    " d="M417.15-41.728c0,0,25.727,25.28,7.91,59.275
		C394.947,75.01,326.946,78.678,221.188,52.35C34.835,5.958,19.204,71.867,19.774,78.164L28.707,89.4
		c-0.573-6.299,15.058-72.205,201.414-25.813c105.756,26.326,173.755,22.658,203.868-34.803
		C451.808-5.21,417.15-41.728,417.15-41.728"/>
	
		<linearGradient id="SVGID_8_" gradientUnits="userSpaceOnUse" x1="945.2373" y1="-1741.2051" x2="711.7227" y2="-1741.2051" gradientTransform="matrix(-0.7403 -0.043 0.0546 -0.5112 927.462 -759.2089)">
		<stop  offset="0" style="stop-color:#BCCCB3"/>
		<stop  offset="1" style="stop-color:#FEF9C8;stop-opacity:0"/>
	</linearGradient>
	<path opacity="0.5" fill="url(#SVGID_8_)" enable-background="new    " d="M-38.783,162.631c0,0-26.448-24.523-9.627-59.021
		C-19.977,45.297,47.891,39.66,154.366,62.91c187.621,40.965,201.333-25.37,200.581-31.648l-9.254-10.973
		c0.757,6.28-12.957,72.607-200.58,31.646C38.639,28.686-29.224,34.325-57.66,92.635C-74.485,127.133-38.783,162.631-38.783,162.631
		"/>
</g>
<g id="logo">
	<g id="logoGroup_1_">
		<circle opacity="0.9" fill="#386D6D" enable-background="new    " cx="302.735" cy="37.5" r="25.942"/>
		<g id="logo_1_" enable-background="new    ">
			<path fill="#FFFFFF" d="M305.403,39.004c-0.563,0.006,0.107,0.288,0.844,0.401c0.203-0.159,0.387-0.319,0.551-0.476
				C306.341,39.041,305.874,39.046,305.403,39.004"/>
			<path fill="#FFFFFF" d="M308.429,38.248c0.337-0.464,0.582-0.971,0.668-1.495c-0.076,0.374-0.277,0.695-0.469,1.037
				c-1.054,0.664-0.1-0.394-0.002-0.797C307.495,38.421,308.471,37.849,308.429,38.248"/>
			<path fill="#FFFFFF" d="M309.547,35.341c0.069-1.015-0.198-0.693-0.289-0.307C309.362,35.09,309.446,35.75,309.547,35.341"/>
			<path fill="#FFFFFF" d="M303.267,21.464c0.301,0.056,0.649,0.095,0.6,0.168C304.196,21.558,304.271,21.493,303.267,21.464"/>
			<path fill="#FFFFFF" d="M303.866,21.632l-0.211,0.044l0.199-0.019L303.866,21.632"/>
			<path fill="#FFFFFF" d="M313.25,35.727c0.033,0.912-0.266,1.354-0.537,2.138l-0.486,0.243c-0.4,0.776,0.039,0.494-0.246,1.109
				c-0.625,0.555-1.889,1.731-2.293,1.838c-0.297-0.006,0.201-0.35,0.265-0.482c-0.833,0.571-0.667,0.857-1.943,1.206l-0.038-0.083
				c-3.143,1.479-7.508-1.449-7.452-5.449c-0.032,0.253-0.095,0.19-0.166,0.292c-0.162-2.058,0.952-4.123,2.827-4.969
				c1.838-0.907,3.988-0.537,5.299,0.69c-0.72-0.944-2.157-1.947-3.859-1.854c-1.668,0.027-3.229,1.089-3.748,2.238
				c-0.856,0.538-0.956,2.073-1.327,2.354c-0.503,3.683,0.942,5.273,3.385,7.146c0.383,0.26,0.107,0.298,0.158,0.494
				c-0.813-0.379-1.553-0.953-2.164-1.654c0.324,0.474,0.676,0.933,1.127,1.296c-0.766-0.258-1.789-1.854-2.086-1.919
				c1.32,2.363,5.349,4.143,7.462,3.258c-0.978,0.036-2.218,0.021-3.317-0.386c-0.461-0.237-1.088-0.728-0.977-0.82
				c2.882,1.075,5.855,0.813,8.35-1.183c0.635-0.495,1.328-1.336,1.527-1.346c-0.301,0.453,0.053,0.217-0.18,0.617
				c0.633-1.02-0.274-0.416,0.652-1.76l0.342,0.472c-0.127-0.847,1.053-1.874,0.932-3.212c0.271-0.409,0.301,0.441,0.014,1.381
				c0.398-1.044,0.105-1.21,0.207-2.073c0.109,0.29,0.256,0.598,0.332,0.903c-0.26-1.01,0.266-1.699,0.396-2.285
				c-0.129-0.057-0.4,0.445-0.463-0.745c0.01-0.519,0.145-0.271,0.195-0.399c-0.102-0.059-0.367-0.456-0.529-1.218
				c0.117-0.178,0.314,0.463,0.475,0.489c-0.104-0.605-0.279-1.066-0.289-1.531c-0.467-0.977-0.166,0.131-0.545-0.418
				c-0.496-1.554,0.414-0.36,0.477-1.065c0.752,1.092,1.184,2.786,1.383,3.488c-0.152-0.855-0.395-1.683-0.693-2.486
				c0.229,0.099-0.371-1.76,0.297-0.529c-0.711-2.621-3.049-5.07-5.197-6.218c0.264,0.24,0.595,0.542,0.478,0.589
				c-1.072-0.635-0.882-0.687-1.037-0.954c-0.87-0.354-0.927,0.029-1.502,0.001c-1.641-0.871-1.957-0.778-3.467-1.324l0.068,0.323
				c-1.088-0.362-1.268,0.136-2.441,0.001c-0.071-0.056,0.377-0.202,0.745-0.256c-1.052,0.139-1.003-0.207-2.03,0.038
				c0.253-0.177,0.521-0.297,0.793-0.447c-0.857,0.053-2.048,0.498-1.682,0.091c-1.399,0.625-3.879,1.502-5.274,2.808l-0.044-0.293
				c-0.64,0.768-2.783,2.287-2.956,3.283l-0.17,0.038c-0.332,0.563-0.546,1.201-0.812,1.777c-0.435,0.741-0.636,0.286-0.574,0.401
				c-0.854,1.732-1.279,3.188-1.646,4.384c0.262,0.391,0.007,2.351,0.106,3.92c-0.429,7.749,5.438,15.277,11.854,17.014
				c0.939,0.338,2.338,0.325,3.527,0.357c-1.402-0.399-1.584-0.212-2.951-0.69c-0.986-0.464-1.201-0.993-1.901-1.6l0.277,0.486
				c-1.371-0.483-0.797-0.602-1.912-0.953l0.297-0.385c-0.445-0.033-1.176-0.747-1.377-1.146l-0.486,0.021
				c-0.582-0.723-0.894-1.242-0.871-1.643l-0.156,0.28c-0.179-0.304-2.148-2.701-1.125-2.144c-0.19-0.172-0.444-0.283-0.717-0.781
				l0.207-0.235c-0.491-0.633-0.905-1.444-0.873-1.714c0.263,0.354,0.443,0.418,0.625,0.479c-1.242-3.077-1.313-0.168-2.252-3.134
				l0.199-0.016c-0.151-0.23-0.245-0.478-0.368-0.724l0.088-0.863c-0.893-1.032-0.249-4.394-0.121-6.237
				c0.091-0.749,0.745-1.547,1.245-2.799l-0.305-0.054c0.582-1.013,3.32-4.074,4.592-3.918c0.615-0.771-0.125-0.003-0.244-0.197
				c1.352-1.397,1.775-0.985,2.688-1.239c0.982-0.58-0.844,0.229-0.378-0.22c1.7-0.435,1.204-0.986,3.421-1.207
				c0.233,0.134-0.541,0.204-0.736,0.376c1.416-0.692,4.479-0.534,6.469,0.385c2.309,1.08,4.903,4.27,5.004,7.27l0.117,0.031
				c-0.059,1.192,0.184,2.572-0.238,3.84L313.25,35.727"/>
			<path fill="#FFFFFF" d="M299.25,39.775l-0.08,0.396c0.37,0.504,0.665,1.05,1.138,1.44
				C299.967,40.949,299.715,40.675,299.25,39.775"/>
			<path fill="#FFFFFF" d="M300.125,39.742c-0.197-0.218-0.313-0.478-0.444-0.737c0.126,0.458,0.38,0.849,0.616,1.251
				L300.125,39.742"/>
			<path fill="#FFFFFF" d="M315.628,36.372l-0.082,0.209c-0.152,1.079-0.48,2.146-0.984,3.135
				C315.119,38.672,315.474,37.53,315.628,36.372"/>
			<path fill="#FFFFFF" d="M303.378,21.193c0.383-0.14,0.938-0.076,1.342-0.168c-0.527,0.045-1.052,0.071-1.57,0.136L303.378,21.193
				"/>
			<path fill="#FFFFFF" d="M289.994,28.311c0.089,0.813-0.611,1.128,0.154,0.592C290.561,27.977,289.99,28.646,289.994,28.311"/>
			<path fill="#FFFFFF" d="M289.093,32.073c0.176-0.542,0.209-0.866,0.277-1.181C288.881,31.517,289.145,31.649,289.093,32.073"/>
		</g>
	</g>
</g>
<g id="debian">
	<g>
		<path id="_x39_" fill="#FFFFFF" d="M738.859,42.882c-5.947,0.175-11.114-5.038-11.114-10.69c0-6.259,4.528-11.754,11.293-11.754
			c6.764,0,10.933,5.495,10.933,13.944c0,7.279-2.438,12.367-5.697,15.524c-2.54,2.491-6.053,4.021-9.612,4.427
			c-1.627,0.254-3.052,0.304-4.117,0.254c0,0,15.187-4.565,15.665-17.064c0.104-2.796,2.035-13.927-7.528-13.671
			c-3.812,0.1-6.51,3.356-6.51,8.04c0,4.12,1.264,7.039,5.438,8.062c2.915,0.715,4.746-0.415,6.909-5.7
			C744.52,34.251,745.478,42.687,738.859,42.882z"/>
		<g>
			<path fill="#FFFFFF" d="M652.604,33.356c-0.033,0.036-0.033,5.464-0.101,6.88c-0.066,1.146-0.169,3.607-2.597,3.607
				c-2.496,0-3.104-2.866-3.305-4.114c-0.236-1.38-0.236-2.53-0.236-3.035c0-1.618,0.1-6.138,3.911-6.138
				c1.147,0,1.787,0.339,2.294,0.608L652.604,33.356z M642.824,37.336c0,9.509,5.06,9.509,5.802,9.509
				c2.09,0,3.438-1.146,4.012-3.136l0.069,3c0.639-0.033,1.281-0.1,2.326-0.1c0.372,0,0.672,0,0.943,0.032
				c0.272,0,0.54,0.033,0.844,0.067c-0.538-1.078-0.944-3.506-0.944-8.769c0-5.125,0-13.791,0.44-16.423
				c-1.214,0.574-2.263,0.945-4.555,1.147c0.911,0.978,0.911,1.484,0.911,5.933c-0.64-0.201-1.45-0.437-2.833-0.437
				C643.803,28.163,642.824,33.423,642.824,37.336"/>
			<path fill="#FFFFFF" d="M661.115,35.614c0.032-2.798,0.606-5.294,3-5.294c2.632,0,2.832,2.9,2.765,5.294H661.115z M670.22,35.953
				c0-3.946-0.776-7.824-5.767-7.824c-6.879,0-6.879,7.622-6.879,9.24c0,6.845,3.067,9.545,8.229,9.545
				c2.291,0,3.405-0.338,4.013-0.507c-0.031-1.215,0.134-1.99,0.338-3.034c-0.71,0.439-1.619,1.011-3.646,1.011
				c-5.259,0-5.326-4.789-5.326-6.441h8.97L670.22,35.953"/>
			<path fill="#FFFFFF" d="M681.19,37.403c0,3.135-0.573,7.352-4.485,7.352c-0.541,0-1.215-0.103-1.652-0.203
				c-0.068-1.215-0.068-3.305-0.068-5.733c0-2.9,0.303-4.416,0.54-5.16c0.707-2.393,2.293-2.426,2.596-2.426
				C680.686,31.234,681.19,34.773,681.19,37.403z M671.512,41.078c0,2.496,0,3.913-0.405,4.991c1.383,0.541,3.102,0.845,5.161,0.845
				c1.314,0,5.126,0,7.183-4.215c0.978-1.956,1.315-4.588,1.315-6.579c0-1.214-0.135-3.876-1.113-5.564
				c-0.943-1.584-2.462-2.394-4.08-2.394c-3.238,0-4.182,2.698-4.686,4.082c0-1.719,0.032-7.723,0.3-10.792
				c-2.19,1.012-3.539,1.178-4.988,1.314c1.315,0.541,1.315,2.768,1.315,10.017v8.295"/>
			<path fill="#FFFFFF" d="M691.247,46.71c-0.674-0.1-1.147-0.169-2.124-0.169c-1.078,0-1.822,0.069-2.596,0.169
				c0.337-0.641,0.475-0.944,0.573-3.136c0.134-3.001,0.168-11.027-0.069-12.715c-0.168-1.282-0.47-1.484-0.943-1.82
				c2.766-0.27,3.54-0.472,4.821-1.079c-0.269,1.482-0.304,2.228-0.304,4.485C690.538,44.081,690.505,45.328,691.247,46.71"/>
			<path fill="#FFFFFF" d="M702.047,37.166c-0.066,2.124-0.103,3.609-0.676,4.788c-0.708,1.518-1.889,1.956-2.766,1.956
				c-2.025,0-2.462-1.685-2.462-3.337c0-3.169,2.834-3.407,4.113-3.407H702.047z M692.772,41.315c0,2.125,0.643,4.249,2.53,5.16
				c0.842,0.37,1.686,0.37,1.956,0.37c3.103,0,4.146-2.293,4.79-3.71c-0.035,1.485,0,2.394,0.102,3.574
				c0.606-0.033,1.213-0.1,2.227-0.1c0.572,0,1.111,0.066,1.685,0.1c-0.372-0.572-0.573-0.91-0.675-2.226
				c-0.067-1.28-0.067-2.563-0.067-4.35l0.035-6.879c0-2.565-0.676-5.094-5.734-5.094c-3.339,0-5.293,1.011-6.271,1.518
				c0.403,0.741,0.743,1.38,1.045,2.832c1.315-1.147,3.036-1.755,4.787-1.755c2.802,0,2.802,1.857,2.802,4.485
				c-0.641-0.032-1.182-0.099-2.093-0.099C695.604,35.145,692.772,36.795,692.772,41.315"/>
			<path fill="#FFFFFF" d="M721.471,43.373c0.035,1.146,0.035,2.36,0.506,3.34c-0.743-0.068-1.181-0.169-2.562-0.169
				c-0.81,0-1.247,0.069-1.891,0.169c0.136-0.44,0.204-0.606,0.271-1.182c0.102-0.774,0.168-3.373,0.168-4.284v-3.642
				c0-1.585,0-3.88-0.102-4.687c-0.068-0.573-0.233-2.126-2.192-2.126c-1.922,0-2.563,1.416-2.798,2.563
				c-0.269,1.179-0.269,2.461-0.269,7.453c0.032,4.316,0.032,4.72,0.369,5.901c-0.573-0.067-1.281-0.134-2.293-0.134
				c-0.811,0-1.352,0.033-2.024,0.134c0.239-0.54,0.373-0.811,0.438-2.697c0.069-1.855,0.202-10.961-0.102-13.119
				c-0.169-1.315-0.507-1.619-0.876-1.957c2.732-0.134,3.608-0.572,4.452-1.01V31.5c0.404-1.046,1.246-3.374,4.619-3.374
				c4.216,0,4.249,3.069,4.282,5.093L721.471,43.373"/>
			<path fill="#FFFFFF" d="M691.532,23.188l-2.794,2.791l-2.791-2.791l2.791-2.792L691.532,23.188"/>
		</g>
	</g>
</g>
<text transform="matrix(1 0 0 1 348.6602 50.7207)" fill="#FFFFFF" font-family="'AlegreyaSans-Bold'" font-size="48.0753">stretch</text>
</svg>
